{
  "builders": [{
    "type": "amazon-ebs",
    "region": "eu-west-2",
    "source_ami_filter": {
      "filters": {
        "virtualization-type": "hvm",
        "name": "ubuntu/images/*ubuntu-xenial-16.04-amd64-server-*",
        "root-device-type": "ebs"
      },
      "most_recent": true
    },
    "instance_type": "t2.micro",
    "ssh_username": "ubuntu",
    "ami_name": "Glon-agileops"
  }],
  "provisioners": [
    {
      "type": "shell",
      "inline": [
        "sleep 10",
        "sudo yum update -y",
        "sudo pip install ansible"
      ]
    }
  ]
}
